<svg width="362" height="357" viewBox="0 0 362 357" fill="none" xmlns="http://www.w3.org/2000/svg">
<path d="M360.62 178.222C360.62 276.152 280.22 355.555 181.022 355.555C81.825 355.555 1.42486 276.152 1.42486 178.222C1.42486 80.2922 81.825 0.88903 181.022 0.88903C280.22 0.88903 360.62 80.2922 360.62 178.222Z" fill="white" stroke="#EFECEB" stroke-width="1.41527"/>
</svg>
