<svg width="305" height="301" viewBox="0 0 305 301" fill="none" xmlns="http://www.w3.org/2000/svg">
<path d="M303.86 150.578C303.86 233.134 236.081 300.072 152.456 300.072C68.8314 300.072 1.05303 233.134 1.05303 150.578C1.05303 68.0213 68.8314 1.08336 152.456 1.08336C236.081 1.08336 303.86 68.0213 303.86 150.578Z" fill="white" stroke="#EFECEB" stroke-width="1.19309"/>
</svg>
